XD58_Artix_100T_project/.Xil/Vivado-4504-Fred-PC/hw_ila_data_1/zip_work/waveform.vcd
$date
        2017-Nov-25 10:57:58
$end
$version
        Vivado v2017.2 (64-bit)
$end
$timescale
        1ps
$end
$scope module dut $end
$var reg 64 " series_data_gather_block/series_data_gather_A/time_code_out_w [63:0] $end
$var reg 16 b series_data_gather_block/series_data_gather_A/com_point_cnt_w [15:0] $end
$var reg 16 r series_data_gather_block/series_data_gather_A/data_in_w [15:0] $end
$var reg 6 $" series_data_gather_block/series_data_gather_A/state_a_w [5:0] $end
$var reg 16 *" series_data_gather_block/series_data_gather_A/com_ratio_cnt_w [15:0] $end
$var reg 16 :" series_data_gather_block/series_data_gather_A/data_out_w [15:0] $end
$var reg 8 J" wreg_series_startmode [7:0] $end
$var reg 1 R" series_data_gather_block/series_data_gather_A/data_in_val_w $end
$var reg 1 S" series_data_gather_block/series_data_gather_A/data_out_val_w $end
$var reg 1 T" series_data_gather_block/series_data_gather_A/start_gather_w $end
$var reg 1 U" series_data_gather_block/series_data_gather_A/time_code_out_val_w $end
$var reg 1 V" series_data_gather_block/series_data_gather_A/triger_gather_w $end
$var reg 1 W" wreg_series_startmode_valid $end
$var reg 1 X" _TRIGGER $end
$var reg 1 Y" _WINDOW $end
$var reg 1 Z" _GAP $end
$upscope $end
$enddefinitions $end
#0
$dumpvars
b0 "
b0 b
b10000 r
b10 $"
b0 *"
b1111 :"
b1 J"
0R"
0S"
0T"
0U"
0V"
0W"
0X"
1Y"
0Z"
$end
#4
b1110 r
1R"
#5
0R"
#9
1R"
#10
0R"
#14
b1111 r
1R"
#15
0R"
#19
1R"
#20
0R"
#24
1R"
#25
0R"
#29
1R"
#30
0R"
#34
1R"
#35
0R"
#39
b1110 r
1R"
#40
0R"
#44
b1111 r
1R"
#45
0R"
#49
1R"
#50
0R"
#54
b1110 r
1R"
#55
0R"
#59
b1111 r
1R"
#60
0R"
#64
1R"
#65
0R"
#69
b1110 r
1R"
#70
0R"
#74
b1111 r
1R"
#75
0R"
#79
1R"
#80
0R"
#84
b1110 r
1R"
#85
0R"
#89
1R"
#90
0R"
#94
b1111 r
1R"
#95
0R"
#98
1V"
#99
b10001 r
b100 $"
1R"
0V"
#100
b100001001010 "
b1 *"
0R"
1U"
1X"
#101
b0 "
#102
0U"
#104
b1101 r
1R"
#105
b10 *"
0R"
#109
b1111 r
1R"
#110
b11 *"
0R"
#114
b1110 r
1R"
#115
b100 *"
0R"
#119
b10000 r
1R"
#120
b101 *"
0R"
#121
b1000 $"
b0 *"
b10001 :"
1S"
#122
b1 b
b100 $"
0S"
#124
b1111 r
1R"
#125
b1 *"
0R"
#129
b1110 r
1R"
#130
b10 *"
0R"
#134
b1111 r
1R"
#135
b11 *"
0R"
#139
b1110 r
1R"
#140
b100 *"
0R"
#144
b1101 r
1R"
#145
b101 *"
0R"
#146
b1000 $"
b0 *"
b1111 :"
1S"
#147
b10 b
b100 $"
0S"
#149
b10000 r
1R"
#150
b1 *"
0R"
#154
b1111 r
1R"
#155
b10 *"
0R"
#159
b1110 r
1R"
#160
b11 *"
0R"
#164
b10000 r
1R"
#165
b100 *"
0R"
#169
b1101 r
1R"
#170
b101 *"
0R"
#171
b1000 $"
b0 *"
b10000 :"
1S"
#172
b11 b
b100 $"
0S"
#174
b1111 r
1R"
#175
b1 *"
0R"
#179
b1110 r
1R"
#180
b10 *"
0R"
#184
b1111 r
1R"
#185
b11 *"
0R"
#189
b1110 r
1R"
#190
b100 *"
0R"
#194
b1111 r
1R"
#195
b101 *"
0R"
#196
b1000 $"
b0 *"
b1111 :"
1S"
#197
b100 b
b100 $"
0S"
#199
b10000 r
1R"
#200
b1 *"
0R"
#204
b1110 r
1R"
#205
b10 *"
0R"
#209
b1111 r
1R"
#210
b11 *"
0R"
#214
1R"
#215
b100 *"
0R"
#219
b1110 r
1R"
#220
b101 *"
0R"
#221
b1000 $"
b0 *"
b10000 :"
1S"
#222
b101 b
b100 $"
0S"
#224
1R"
#225
b1 *"
0R"
#229
1R"
#230
b10 *"
0R"
#234
b10000 r
1R"
#235
b11 *"
0R"
#239
b1110 r
1R"
#240
b100 *"
0R"
#244
b1111 r
1R"
#245
b101 *"
0R"
#246
b1000 $"
b0 *"
1S"
#247
b110 b
b100 $"
0S"
#249
b10000 r
1R"
#250
b1 *"
0R"
#254
b1110 r
1R"
#255
b10 *"
0R"
#259
b1101 r
1R"
#260
b11 *"
0R"
#264
b1111 r
1R"
#265
b100 *"
0R"
#269
b1110 r
1R"
#270
b101 *"
0R"
#271
b1000 $"
b0 *"
1S"
#272
b111 b
b100 $"
0S"
#274
b1111 r
1R"
#275
b1 *"
0R"
#279
b1110 r
1R"
#280
b10 *"
0R"
#284
1R"
#285
b11 *"
0R"
#289
b1101 r
1R"
#290
b100 *"
0R"
#294
b1111 r
1R"
#295
b101 *"
0R"
#296
b1000 $"
b0 *"
b1111 :"
1S"
#297
b1000 b
b100 $"
0S"
#299
b10000 r
1R"
#300
b1 *"
0R"
#304
b1101 r
1R"
#305
b10 *"
0R"
#309
b1111 r
1R"
#310
b11 *"
0R"
#314
1R"
#315
b100 *"
0R"
#319
1R"
#320
b101 *"
0R"
#321
b1000 $"
b0 *"
b10000 :"
1S"
#322
b1001 b
b100 $"
0S"
#324
b1110 r
1R"
#325
b1 *"
0R"
#329
1R"
#330
b10 *"
0R"
#334
b1111 r
1R"
#335
b11 *"
0R"
#339
b1110 r
1R"
#340
b100 *"
0R"
#344
1R"
#345
b101 *"
0R"
#346
b1000 $"
b0 *"
b1111 :"
1S"
#347
b1010 b
b100 $"
0S"
#349
b1111 r
1R"
#350
b1 *"
0R"
#354
b1110 r
1R"
#355
b10 *"
0R"
#359
b1111 r
1R"
#360
b11 *"
0R"
#364
1R"
#365
b100 *"
0R"
#369
1R"
#370
b101 *"
0R"
#371
b1000 $"
b0 *"
1S"
#372
b1011 b
b100 $"
0S"
#374
1R"
#375
b1 *"
0R"
#379
1R"
#380
b10 *"
0R"
#384
1R"
#385
b11 *"
0R"
#389
b1101 r
1R"
#390
b100 *"
0R"
#394
b1110 r
1R"
#395
b101 *"
0R"
#396
b1000 $"
b0 *"
1S"
#397
b1100 b
b100 $"
0S"
#399
b1111 r
1R"
#400
b1 *"
0R"
#404
b1101 r
1R"
#405
b10 *"
0R"
#409
b1111 r
1R"
#410
b11 *"
0R"
#414
b10000 r
1R"
#415
b100 *"
0R"
#419
b1111 r
1R"
#420
b101 *"
0R"
#421
b1000 $"
b0 *"
b10000 :"
1S"
#422
b1101 b
b100 $"
0S"
#424
1R"
#425
b1 *"
0R"
#429
1R"
#430
b10 *"
0R"
#434
1R"
#435
b11 *"
0R"
#439
b1110 r
1R"
#440
b100 *"
0R"
#444
1R"
#445
b101 *"
0R"
#446
b1000 $"
b0 *"
b1111 :"
1S"
#447
b1110 b
b100 $"
0S"
#449
b1111 r
1R"
#450
b1 *"
0R"
#454
b1110 r
1R"
#455
b10 *"
0R"
#459
b1101 r
1R"
#460
b11 *"
0R"
#464
b1110 r
1R"
#465
b100 *"
0R"
#469
1R"
#470
b101 *"
0R"
#471
b1000 $"
b0 *"
1S"
#472
b1111 b
b100 $"
0S"
#474
b1111 r
1R"
#475
b1 *"
0R"
#479
b1110 r
1R"
#480
b10 *"
0R"
#484
1R"
#485
b11 *"
0R"
#489
1R"
#490
b100 *"
0R"
#494
1R"
#495
b101 *"
0R"
#496
b1000 $"
b0 *"
1S"
#497
b0 b
b10 $"
0S"
#499
b10000 r
1R"
#500
0R"
#504
b1110 r
1R"
#505
0R"
#509
b1111 r
1R"
#510
0R"
#514
b1110 r
1R"
#515
0R"
#519
1R"
#520
0R"
#524
b1111 r
1R"
#525
0R"
#529
b1110 r
1R"
#530
0R"
#534
1R"
#535
0R"
#539
1R"
#540
0R"
#544
b1101 r
1R"
#545
0R"
#549
b1111 r
1R"
#550
0R"
#554
b1110 r
1R"
#555
0R"
#559
b1100 r
1R"
#560
0R"
#564
b10000 r
1R"
#565
0R"
#569
b1101 r
1R"
#570
0R"
#574
b1111 r
1R"
#575
0R"
#579
b10000 r
1R"
#580
0R"
#584
b1110 r
1R"
#585
0R"
#589
b1100 r
1R"
#590
0R"
#594
b1110 r
1R"
#595
0R"
#599
b10000 r
1R"
#600
0R"
#604
b1110 r
1R"
#605
0R"
#609
b1111 r
1R"
#610
0R"
#614
b1110 r
1R"
#615
0R"
#619
b1111 r
1R"
#620
0R"
#624
b1110 r
1R"
#625
0R"
#629
1R"
#630
0R"
#634
1R"
#635
0R"
#639
b1111 r
1R"
#640
0R"
#644
b1110 r
1R"
#645
0R"
#649
b1111 r
1R"
#650
0R"
#654
b1110 r
1R"
#655
0R"
#659
1R"
#660
0R"
#664
b1111 r
1R"
#665
0R"
#669
1R"
#670
0R"
#674
1R"
#675
0R"
#679
1R"
#680
0R"
#684
b1110 r
1R"
#685
0R"
#689
b1100 r
1R"
#690
0R"
#694
b1110 r
1R"
#695
0R"
#699
b10000 r
1R"
#700
0R"
#704
b1101 r
1R"
#705
0R"
#709
b1111 r
1R"
#710
0R"
#714
b1110 r
1R"
#715
0R"
#719
b1111 r
1R"
#720
0R"
#724
1R"
#725
0R"
#729
b1110 r
1R"
#730
0R"
#734
b1111 r
1R"
#735
0R"
#739
b1101 r
1R"
#740
0R"
#744
b1111 r
1R"
#745
0R"
#749
1R"
#750
0R"
#754
b1110 r
1R"
#755
0R"
#759
1R"
#760
0R"
#764
b1111 r
1R"
#765
0R"
#769
b1101 r
1R"
#770
0R"
#774
b1110 r
1R"
#775
0R"
#779
1R"
#780
0R"
#784
1R"
#785
0R"
#789
b1101 r
1R"
#790
0R"
#794
b1111 r
1R"
#795
0R"
#799
b10000 r
1R"
#800
0R"
#804
b1110 r
1R"
#805
0R"
#809
b10000 r
1R"
#810
0R"
#814
b1110 r
1R"
#815
0R"
#819
b1111 r
1R"
#820
0R"
#824
b1110 r
1R"
#825
0R"
#829
b1101 r
1R"
#830
0R"
#834
b1111 r
1R"
#835
0R"
#839
b1110 r
1R"
#840
0R"
#844
1R"
#845
0R"
#849
1R"
#850
0R"
#854
b1111 r
1R"
#855
0R"
#859
b1110 r
1R"
#860
0R"
#864
1R"
#865
0R"
#869
1R"
#870
0R"
#874
b1111 r
1R"
#875
0R"
#879
b1110 r
1R"
#880
0R"
#884
1R"
#885
0R"
#889
1R"
#890
0R"
#894
b1111 r
1R"
#895
0R"
#899
b10000 r
1R"
#900
0R"
#904
b1101 r
1R"
#905
0R"
#909
b1111 r
1R"
#910
0R"
#914
b1110 r
1R"
#915
0R"
#919
b1111 r
1R"
#920
0R"
#924
b1110 r
1R"
#925
0R"
#929
b1101 r
1R"
#930
0R"
#934
b1111 r
1R"
#935
0R"
#939
1R"
#940
0R"
#944
1R"
#945
0R"
#949
1R"
#950
0R"
#954
b1110 r
1R"
#955
0R"
#959
b1101 r
1R"
#960
0R"
#964
b1111 r
1R"
#965
0R"
#969
b1101 r
1R"
#970
0R"
#974
b1111 r
1R"
#975
0R"
#979
b1110 r
1R"
#980
0R"
#984
1R"
#985
0R"
#989
1R"
#990
0R"
#994
1R"
#995
0R"
#999
b1111 r
1R"
#1000
0R"
#1004
b1101 r
1R"
#1005
0R"
#1009
b1110 r
1R"
#1010
0R"
#1014
1R"
#1015
0R"
#1019
b1111 r
1R"
#1020
0R"
