XD58_Artix_100T_project/.Xil/Vivado-6812-Fred-PC/hw_ila_data_1/zip_work/waveform.vcd
$date
        2017-Nov-20 09:57:24
$end
$version
        Vivado v2017.2 (64-bit)
$end
$timescale
        1ps
$end
$scope module dut $end
$var reg 10 " rd_ddr3_ctrl_inst/ram_wr_addr_w [9:0] $end
$var reg 32 , rd_ddr3_ctrl_inst/ram_wr_data_w [31:0] $end
$var reg 6 L rd_ddr3_ctrl_inst/state_a_w [5:0] $end
$var reg 9 R rd_ddr3_ctrl_inst/user_rd_len_w_1 [8:0] $end
$var reg 2 [ user_rd_len [10:9] $end
$var reg 5 ] rd_ddr3_ctrl_inst/user_rd_len_w [15:11] $end
$var reg 32 b rd_ddr3_ctrl_inst/user_read_data [31:0] $end
$var reg 10 $" rd_ddr3_ctrl_inst/wr_ram_cnt_w [9:0] $end
$var reg 1 ." rd_ddr3_ctrl_inst/ram_we_en_w $end
$var reg 1 /" rd_ddr3_ctrl_inst/txd_done_w $end
$var reg 1 0" rd_ddr3_ctrl_inst/user_rd_en_w $end
$var reg 1 1" rd_ddr3_ctrl_inst/user_read_data_val $end
$var reg 1 2" _TRIGGER $end
$var reg 1 3" _WINDOW $end
$var reg 1 4" _GAP $end
$upscope $end
$enddefinitions $end
#0
$dumpvars
b0 "
b0 ,
b1 L
b0 R
b0 [
b0 ]
b0 b
b0 $"
0."
0/"
00"
01"
02"
13"
04"
$end
#100
b10 L
b1 R
10"
12"
#101
00"
#144
b1000 b
#145
11"
#146
b1000 ,
b0 b
b1 $"
1."
#147
b1 "
b0 ,
b10 $"
1/"
01"
#148
b100 L
0."
#149
b1000 L
b10 R
0/"
10"
#150
00"
#193
b10000000000000010 b
#194
11"
#195
b10 "
b10000000000000010 ,
b110000000000000100 b
b11 $"
1."
#196
b11 "
b110000000000000100 ,
b1010000000000000110 b
b100 $"
#197
b100 "
b1010000000000000110 ,
b1110000000000001000 b
b101 $"
#198
b101 "
b1110000000000001000 ,
b10010000000000001010 b
b110 $"
#199
b110 "
b10010000000000001010 ,
b10110000000000001100 b
b111 $"
#200
b111 "
b10110000000000001100 ,
b11010000000000001110 b
b1000 $"
#201
b1000 "
b11010000000000001110 ,
b11110000000000010000 b
b1001 $"
#202
b1001 "
b11110000000000010000 ,
b100010000000000010010 b
b1010 $"
#203
b1010 "
b100010000000000010010 ,
b100110000000000010100 b
b1011 $"
#204
b1011 "
b100110000000000010100 ,
b101010000000000010110 b
b1100 $"
#205
b1100 "
b101010000000000010110 ,
b101110000000000011000 b
b1101 $"
#206
b1101 "
b101110000000000011000 ,
b110010000000000011010 b
b1110 $"
#207
b1110 "
b110010000000000011010 ,
b110110000000000011100 b
b1111 $"
#208
b1111 "
b110110000000000011100 ,
b111010000000000011110 b
b10000 $"
#209
b10000 "
b111010000000000011110 ,
b111110000000000100000 b
b10001 $"
#210
b10001 "
b111110000000000100000 ,
b0 b
b10010 $"
01"
#211
0."
#253
b1000010000000000100010 b
#254
11"
#255
b10010 "
b1000010000000000100010 ,
b1000110000000000100100 b
b10011 $"
1."
#256
b10011 "
b1000110000000000100100 ,
b1001010000000000100110 b
b10100 $"
#257
b10100 "
b1001010000000000100110 ,
b1001110000000000101000 b
b10101 $"
#258
b10101 "
b1001110000000000101000 ,
b1010010000000000101010 b
b10110 $"
#259
b10110 "
b1010010000000000101010 ,
b1010110000000000101100 b
b10111 $"
#260
b10111 "
b1010110000000000101100 ,
b1011010000000000101110 b
b11000 $"
#261
b11000 "
b1011010000000000101110 ,
b1011110000000000110000 b
b11001 $"
#262
b11001 "
b1011110000000000110000 ,
b1100010000000000110010 b
b11010 $"
#263
b11010 "
b1100010000000000110010 ,
b1100110000000000110100 b
b11011 $"
#264
b11011 "
b1100110000000000110100 ,
b1101010000000000110110 b
b11100 $"
#265
b11100 "
b1101010000000000110110 ,
b1101110000000000111000 b
b11101 $"
#266
b11101 "
b1101110000000000111000 ,
b1110010000000000111010 b
b11110 $"
#267
b11110 "
b1110010000000000111010 ,
b1110110000000000111100 b
b11111 $"
#268
b11111 "
b1110110000000000111100 ,
b1111010000000000111110 b
b100000 $"
#269
b100000 "
b1111010000000000111110 ,
b1111110000000001000000 b
b100001 $"
#270
b100001 "
b1111110000000001000000 ,
b10000000000000010 b
b100010 $"
1/"
01"
#271
b1 L
0."
#272
0/"
