XD58_Artix_100T_project/.Xil/Vivado-4348-Fred-PC/hw_ila_data_1/zip_work/waveform.vcd
$date
        2017-Nov-29 14:22:07
$end
$version
        Vivado v2017.2 (64-bit)
$end
$timescale
        1ps
$end
$scope module dut $end
$var reg 16 " ddr3_block_inst/wr_ddr3_ctrl_block/wr_ddr3_ctrl_A/user_wr_len_w [15:0] $end
$var reg 6 2 ddr3_block_inst/wr_ddr3_ctrl_block/wr_ddr3_ctrl_A/state_a_w [5:0] $end
$var reg 8 8 ddr3_block_inst/wr_ddr3_ctrl_block/wr_ddr3_ctrl_A/user_wr_burst_len_w [7:0] $end
$var reg 32 @ ddr3_block_inst/wr_ddr3_ctrl_block/wr_ddr3_ctrl_A/user_wr_base_addr_w [31:0] $end
$var reg 32 ` ddr3_block_inst/wr_ddr3_ctrl_block/wr_ddr3_ctrl_A/wr_addr_step_w [31:0] $end
$var reg 32 "" ddr3_block_inst/wr_ddr3_ctrl_block/wr_ddr3_ctrl_A/user_wr_data_w [31:0] $end
$var reg 6 B" ddr3_block_inst/wr_ddr3_data_sel/state_a_w [5:0] $end
$var reg 11 H" ddr3_block_inst/wr_ddr3_data_sel/fifo_ddr3_sgl_A_w [10:0] $end
$var reg 32 S" ddr3_block_inst/wr_ddr3_ctrl_block/wr_ddr3_ctrl_A/fifo_time_code_w [31:0] $end
$var reg 32 s" ddr3_block_inst/wr_ddr3_ctrl_block/wr_ddr3_ctrl_A/wr_temp_addr_w [31:0] $end
$var reg 32 5# ddr3_block_inst/wr_ddr3_ctrl_block/wr_ddr3_ctrl_A/fifo_rd_data_w [31:0] $end
$var reg 1 U# ddr3_block_inst/wr_ddr3_data_sel/ch_A_ok_w $end
$var reg 1 V# ddr3_block_inst/wr_ddr3_ctrl_block/wr_ddr3_ctrl_A/ddr3_wr_done_w $end
$var reg 1 W# ddr3_block_inst/wr_ddr3_ctrl_block/wr_ddr3_ctrl_A/fifo_rd_ddr3_data_en_w $end
$var reg 1 X# ddr3_block_inst/wr_ddr3_ctrl_block/wr_ddr3_ctrl_A/fifo_rd_time_code_en_w $end
$var reg 1 Y# ddr3_block_inst/wr_ddr3_ctrl_block/wr_ddr3_ctrl_A/rden_sel_w $end
$var reg 1 Z# ddr3_block_inst/wr_ddr3_ctrl_block/wr_ddr3_ctrl_A/txn_done_w $end
$var reg 1 [# ddr3_block_inst/wr_ddr3_data_sel/type_A0_ok_w $end
$var reg 1 \# ddr3_block_inst/wr_ddr3_data_sel/type_A1_ok_w $end
$var reg 1 ]# ddr3_block_inst/wr_ddr3_ctrl_block/wr_ddr3_ctrl_A/user_rd_data_en_w $end
$var reg 1 ^# ddr3_block_inst/wr_ddr3_ctrl_block/wr_ddr3_ctrl_A/user_wr_en_w $end
$var reg 1 _# ddr3_block_inst/wr_ddr3_ctrl_block/wr_ddr3_ctrl_A/user_wr_satisfy_w $end
$var reg 1 `# u_ila_0_wr_ddr3_ch_sel_w $end
$var reg 1 a# _TRIGGER $end
$var reg 1 b# _WINDOW $end
$var reg 1 c# _GAP $end
$upscope $end
$enddefinitions $end
#0
$dumpvars
b0 "
b1 2
b0 8
b10000000010000000000000000000000 @
b1001000 `
b1111 ""
b1 B"
b1101 H"
b1111 S"
b1001000 s"
b101000000000000010100 5#
0U#
0V#
0W#
0X#
0Y#
0Z#
0[#
0\#
0]#
0^#
0_#
0`#
0a#
1b#
0c#
$end
#15
b1110 H"
#56
b1111 H"
#98
b10000 H"
1U#
1[#
#99
b10 B"
1`#
#100
b1 "
b10 2
b10 8
1^#
1a#
#101
b100 2
0^#
1_#
#102
0_#
#104
1X#
1]#
#105
b0 ""
b0 S"
#106
0X#
0]#
#130
1Z#
#131
b1000 2
#132
b10000 2
b10000 8
b10000000010000000000000000001000 @
b101000000000000010100 ""
b1010000 s"
1Y#
0Z#
1^#
#133
b100000 2
0^#
1_#
#134
0_#
#136
1W#
1]#
#137
b101000000000000010101 ""
b101000000000000010101 5#
#138
b1111 H"
0U#
0W#
0[#
0]#
#139
b1110 H"
#141
1W#
1]#
#142
b101000000000000010100 ""
b101000000000000010100 5#
#143
b101010000000000010101 ""
b1101 H"
b101010000000000010101 5#
#144
b101010000000000010100 ""
b1100 H"
b101010000000000010100 5#
#145
b101010000000000010101 ""
b1011 H"
b101010000000000010101 5#
#146
b101000000000000010101 ""
b1010 H"
b101000000000000010101 5#
#147
b101000000000000010100 ""
b1001 H"
b101000000000000010100 5#
#148
b1000 H"
#149
b101000000000000010101 ""
b111 H"
b101000000000000010101 5#
#150
b110 H"
#151
b101 H"
#152
b101000000000000010100 ""
b100 H"
b101000000000000010100 5#
#153
b101000000000000010011 ""
b11 H"
b101000000000000010011 5#
#154
b101000000000000010100 ""
b10 H"
b101000000000000010100 5#
#155
b1 H"
0W#
0]#
#156
b0 H"
#176
1Z#
#177
b0 2
b0 ""
b10010000 s"
1V#
0Y#
#178
b1 2
b1 B"
0Z#
0`#
#179
b100 B"
