XD58_Artix_100T_project/.Xil/Vivado-2172-Fred-PC/hw_ila_data_2/zip_work/waveform.vcd
$date
        2017-Nov-16 13:33:56
$end
$version
        Vivado v2017.2 (64-bit)
$end
$timescale
        1ps
$end
$scope module dut $end
$var reg 32 " wr_ddr3_ctrl_inst/user_wr_base_addr_w [31:0] $end
$var reg 6 B wr_ddr3_ctrl_inst/state_a_w [5:0] $end
$var reg 32 H wr_ddr3_ctrl_inst/fifo_rd_data_A_w [31:0] $end
$var reg 32 h wr_ddr3_ctrl_inst/fifo_time_code_A_w [31:0] $end
$var reg 1 *" wr_ddr3_ctrl_inst/fifo_rd_time_code_en_w $end
$var reg 1 +" wr_ddr3_ctrl_inst/rd_fifo_data_en_w $end
$var reg 1 ," wr_ddr3_ctrl_inst/txn_done_w $end
$var reg 1 -" wr_ddr3_ctrl_inst/user_rd_data_en_w $end
$var reg 1 ." user_wr_en $end
$var reg 1 /" wr_ddr3_ctrl_inst/user_wr_satisfy_w $end
$var reg 1 0" _TRIGGER $end
$var reg 1 1" _WINDOW $end
$var reg 1 2" _GAP $end
$upscope $end
$enddefinitions $end
#0
$dumpvars
b10000000000100000000000000000000 "
b1 B
b10000000000000010 H
b1010 h
0*"
0+"
0,"
0-"
0."
1/"
00"
11"
02"
$end
#64
b10 B
1."
#65
b100 B
0."
#68
1*"
1-"
#69
b0 h
#70
b1011 h
0*"
0-"
#94
1,"
#95
b1000 B
#96
b10000000000100000000000000001000 "
b10000 B
0,"
1."
#97
b100000 B
0."
#100
1+"
1-"
10"
#101
b110000000000000100 H
#102
b1010000000000000110 H
0+"
0-"
#105
1+"
1-"
#106
b1110000000000001000 H
#107
b10010000000000001010 H
#108
b10110000000000001100 H
#109
b11010000000000001110 H
#110
b11110000000000010000 H
#111
b100010000000000010010 H
#112
b100110000000000010100 H
#113
b101010000000000010110 H
#114
b101110000000000011000 H
#115
b110010000000000011010 H
#116
b110110000000000011100 H
#117
b111010000000000011110 H
#118
b111110000000000100000 H
#119
b1000010000000000100010 H
0+"
0-"
#142
1+"
1-"
#143
b1000110000000000100100 H
#144
b1001010000000000100110 H
0+"
0-"
#147
1+"
1-"
#148
b1001110000000000101000 H
#149
b1010010000000000101010 H
#150
b1010110000000000101100 H
#151
b1011010000000000101110 H
#152
b1011110000000000110000 H
#153
b1100010000000000110010 H
#154
b1100110000000000110100 H
#155
b1101010000000000110110 H
#156
b1101110000000000111000 H
#157
b1110010000000000111010 H
#158
b1110110000000000111100 H
#159
b1111010000000000111110 H
#160
b1111110000000001000000 H
#161
b10000000000000010 H
0+"
0-"
#182
1,"
#183
b0 B
#184
b1 B
0,"
