XD58_Artix_100T_project/.Xil/Vivado-4088-Fred-PC/hw_ila_data_1/zip_work/waveform.vcd
$date
        2017-Nov-17 15:28:55
$end
$version
        Vivado v2017.2 (64-bit)
$end
$timescale
        1ps
$end
$scope module dut $end
$var reg 2 " sub_BD_inst/sub_BD_i/system_ila_0/inst/net_slot_0_axi_ar_cnt [1:0] $end
$var reg 32 $ sub_BD_inst/sub_BD_i/system_ila_0/inst/net_slot_0_axi_araddr [31:0] $end
$var reg 2 D sub_BD_inst/sub_BD_i/system_ila_0/inst/net_slot_0_axi_arburst [1:0] $end
$var reg 4 F sub_BD_inst/sub_BD_i/system_ila_0/inst/net_slot_0_axi_arcache [3:0] $end
$var reg 1 J sub_BD_inst/sub_BD_i/system_ila_0/inst/net_slot_0_axi_arid $end
$var reg 8 K sub_BD_inst/sub_BD_i/system_ila_0/inst/net_slot_0_axi_arlen [7:0] $end
$var reg 1 S sub_BD_inst/sub_BD_i/system_ila_0/inst/net_slot_0_axi_arlock $end
$var reg 3 T sub_BD_inst/sub_BD_i/system_ila_0/inst/net_slot_0_axi_arprot [2:0] $end
$var reg 4 W sub_BD_inst/sub_BD_i/system_ila_0/inst/net_slot_0_axi_arqos [3:0] $end
$var reg 3 [ sub_BD_inst/sub_BD_i/system_ila_0/inst/net_slot_0_axi_arsize [2:0] $end
$var reg 1 ^ sub_BD_inst/sub_BD_i/system_ila_0/inst/net_slot_0_axi_aruser $end
$var reg 2 _ sub_BD_inst/sub_BD_i/system_ila_0/inst/net_slot_0_axi_aw_cnt [1:0] $end
$var reg 32 a sub_BD_inst/sub_BD_i/system_ila_0/inst/net_slot_0_axi_awaddr [31:0] $end
$var reg 2 #" sub_BD_inst/sub_BD_i/system_ila_0/inst/net_slot_0_axi_awburst [1:0] $end
$var reg 4 %" sub_BD_inst/sub_BD_i/system_ila_0/inst/net_slot_0_axi_awcache [3:0] $end
$var reg 1 )" sub_BD_inst/sub_BD_i/system_ila_0/inst/net_slot_0_axi_awid $end
$var reg 8 *" sub_BD_inst/sub_BD_i/system_ila_0/inst/net_slot_0_axi_awlen [7:0] $end
$var reg 1 2" sub_BD_inst/sub_BD_i/system_ila_0/inst/net_slot_0_axi_awlock $end
$var reg 3 3" sub_BD_inst/sub_BD_i/system_ila_0/inst/net_slot_0_axi_awprot [2:0] $end
$var reg 4 6" sub_BD_inst/sub_BD_i/system_ila_0/inst/net_slot_0_axi_awqos [3:0] $end
$var reg 3 :" sub_BD_inst/sub_BD_i/system_ila_0/inst/net_slot_0_axi_awsize [2:0] $end
$var reg 1 =" sub_BD_inst/sub_BD_i/system_ila_0/inst/net_slot_0_axi_awuser $end
$var reg 2 >" sub_BD_inst/sub_BD_i/system_ila_0/inst/net_slot_0_axi_b_cnt [1:0] $end
$var reg 1 @" sub_BD_inst/sub_BD_i/system_ila_0/inst/net_slot_0_axi_bid $end
$var reg 2 A" sub_BD_inst/sub_BD_i/system_ila_0/inst/net_slot_0_axi_bresp [1:0] $end
$var reg 1 C" sub_BD_inst/sub_BD_i/system_ila_0/inst/net_slot_0_axi_buser $end
$var reg 2 D" sub_BD_inst/sub_BD_i/system_ila_0/inst/net_slot_0_axi_r_cnt [1:0] $end
$var reg 32 F" sub_BD_inst/sub_BD_i/system_ila_0/inst/net_slot_0_axi_rdata [31:0] $end
$var reg 1 f" sub_BD_inst/sub_BD_i/system_ila_0/inst/net_slot_0_axi_rid $end
$var reg 2 g" sub_BD_inst/sub_BD_i/system_ila_0/inst/net_slot_0_axi_rresp [1:0] $end
$var reg 1 i" sub_BD_inst/sub_BD_i/system_ila_0/inst/net_slot_0_axi_ruser $end
$var reg 32 j" sub_BD_inst/sub_BD_i/system_ila_0/inst/net_slot_0_axi_wdata [31:0] $end
$var reg 4 ,# sub_BD_inst/sub_BD_i/system_ila_0/inst/net_slot_0_axi_wstrb [3:0] $end
$var reg 1 0# sub_BD_inst/sub_BD_i/system_ila_0/inst/net_slot_0_axi_wuser $end
$var reg 2 1# sub_BD_inst/sub_BD_i/system_ila_0/inst/net_slot_0_axi_aw_ctrl [1:0] $end
$var reg 1 3# sub_BD_inst/sub_BD_i/system_ila_0/inst/net_slot_0_axi_awvalid $end
$var reg 1 4# sub_BD_inst/sub_BD_i/system_ila_0/inst/net_slot_0_axi_awready $end
$var reg 3 5# sub_BD_inst/sub_BD_i/system_ila_0/inst/net_slot_0_axi_w_ctrl [2:0] $end
$var reg 1 8# sub_BD_inst/sub_BD_i/system_ila_0/inst/net_slot_0_axi_wvalid $end
$var reg 1 9# sub_BD_inst/sub_BD_i/system_ila_0/inst/net_slot_0_axi_wready $end
$var reg 1 :# sub_BD_inst/sub_BD_i/system_ila_0/inst/net_slot_0_axi_wlast $end
$var reg 2 ;# sub_BD_inst/sub_BD_i/system_ila_0/inst/net_slot_0_axi_b_ctrl [1:0] $end
$var reg 1 =# sub_BD_inst/sub_BD_i/system_ila_0/inst/net_slot_0_axi_bvalid $end
$var reg 1 ># sub_BD_inst/sub_BD_i/system_ila_0/inst/net_slot_0_axi_bready $end
$var reg 2 ?# sub_BD_inst/sub_BD_i/system_ila_0/inst/net_slot_0_axi_ar_ctrl [1:0] $end
$var reg 1 A# sub_BD_inst/sub_BD_i/system_ila_0/inst/net_slot_0_axi_arvalid $end
$var reg 1 B# sub_BD_inst/sub_BD_i/system_ila_0/inst/net_slot_0_axi_arready $end
$var reg 3 C# sub_BD_inst/sub_BD_i/system_ila_0/inst/net_slot_0_axi_r_ctrl [2:0] $end
$var reg 1 F# sub_BD_inst/sub_BD_i/system_ila_0/inst/net_slot_0_axi_rvalid $end
$var reg 1 G# sub_BD_inst/sub_BD_i/system_ila_0/inst/net_slot_0_axi_rready $end
$var reg 1 H# sub_BD_inst/sub_BD_i/system_ila_0/inst/net_slot_0_axi_rlast $end
$var reg 3 I# AR_Channel__i1_s0___MY_AXI_MASTER_FULL_ip_0_Master_Full_AXI_ [2:0] $end
$var reg 3 L# AW_Channel__i1_s0___MY_AXI_MASTER_FULL_ip_0_Master_Full_AXI_ [2:0] $end
$var reg 3 O# B_Channel__i1_s0___MY_AXI_MASTER_FULL_ip_0_Master_Full_AXI_ [2:0] $end
$var reg 3 R# R_Channel__i1_s0___MY_AXI_MASTER_FULL_ip_0_Master_Full_AXI_ [2:0] $end
$var reg 3 U# W_Channel__i1_s0___MY_AXI_MASTER_FULL_ip_0_Master_Full_AXI_ [2:0] $end
$var reg 16 X# slot_0___MY_AXI_MASTER_FULL_ip_0_Master_Full_AXI___Read_Transactions_0 [15:0] $end
$var reg 1 h# _TRIGGER $end
$var reg 1 i# _WINDOW $end
$var reg 1 j# _GAP $end
$upscope $end
$enddefinitions $end
#0
$dumpvars
b0 "
b10000000010000000000001100101000 $
b1 D
b10 F
0J
b1111 K
0S
b0 T
b0 W
b10 [
1^
b0 _
b10000000010000000000001010101000 a
b1 #"
b10 %"
0)"
b1111 *"
02"
b0 3"
b0 6"
b10 :"
1="
b0 >"
0@"
b0 A"
0C"
b0 D"
b10000000000000010 F"
0f"
b0 g"
0i"
b0 j"
b1111 ,#
00#
b10 1#
03#
14#
b10 5#
08#
19#
0:#
b0 ;#
0=#
0>#
b10 ?#
0A#
1B#
b0 C#
0F#
0G#
0H#
b0 I#
b11 L#
b11 O#
b0 R#
b100 U#
b0 X#
0h#
1i#
0j#
$end
#56
b1 K
#57
b10000000010000000000001010101000 $
#59
b11 ?#
1A#
b10 I#
b1 X#
#60
b1 "
b1 D"
b10 ?#
0A#
b0 I#
#100
b11101011000000101111111111111 F"
b1 C#
1F#
1h#
#101
b11 C#
1G#
b1 R#
#102
b1000111110110011010000100010111 F"
b111 C#
1H#
b111 R#
#103
b0 "
b10000000010000000000001010110000 $
b0 D"
b1010000000000000110 F"
b0 C#
0F#
0G#
0H#
b0 R#
b0 X#
#105
b10000000010000000000001010111000 $
b1111 K
#106
b10000000010000000000001010110000 $
#108
b11 ?#
1A#
b10 I#
b10 X#
#109
b1 "
b1 D"
b10 ?#
0A#
b0 I#
#149
b11011111110101111101011011011111 F"
b1 C#
1F#
#150
b11 C#
1G#
b1 R#
#151
b11011110111001000011110101011010 F"
#152
b11110101010100010100101101110001 F"
#153
b11010100110111010010111000101101 F"
#154
b1111110111100101111111010111 F"
#155
b1110100111100011101100000011110 F"
#156
b11110110001101111001010110111101 F"
#157
b1010001011001011010001010110001 F"
#158
b11011111010111001100001101101111 F"
#159
b10010101010111101111111111011111 F"
#160
b111101011111011011011010011100 F"
#161
b1111111101100010000011011111001 F"
#162
b11100111110111111101110111010101 F"
#163
b110101111000011111111100111111 F"
#164
b1110000010011011100011110111011 F"
#165
b1110011000101010001010111110111 F"
b111 C#
1H#
b111 R#
#166
b0 "
b10000000010000000000001011110000 $
b0 D"
b1001010000000000100110 F"
b0 C#
0F#
0G#
0H#
b0 R#
b0 X#
#168
b11 ?#
1A#
b10 I#
b11 X#
#169
b1 "
b1 D"
b10 ?#
0A#
b0 I#
#209
b11001110011001011011110010001110 F"
b1 C#
1F#
#210
b11 C#
1G#
b1 R#
#211
b1000111011111001101110111000111 F"
#212
b10110000110111101110011111110110 F"
#213
b10110111010111000110111101110101 F"
#214
b1110010000001011111110110111 F"
#215
b11111101000101100110010100000101 F"
#216
b11111110010101110100111111000111 F"
#217
b1011011001111010100111101100101 F"
#218
b1110100100001111111001011111100 F"
#219
b1011100010111100111011001110101 F"
#220
b111011110000111010101110100110 F"
#221
b11011001000111111100101110101001 F"
#222
b11010101111111110111100101011011 F"
#223
b11110011011111000100110101111111 F"
#224
b1110101000001101110111111001110 F"
#225
b11010010011001111111111101011110 F"
b111 C#
1H#
b111 R#
#226
b0 "
b10000000010000000000001100110000 $
b0 D"
b11011111110101111101011011011111 F"
b0 C#
0F#
0G#
0H#
b0 R#
b0 X#
#227
b10000000010000000000001110110000 $
